CalculationMode = test

TestMode = batch_ops
TestBatchOps = ops_axpy + ops_scal + ops_nrm2 + ops_dotp_matrix + ops_dotp_self + ops_dotp_vector
TestRepetitions = 5

PeriodicDimensions = 3

aCell = 10
bCell = 8
cCell = 16

%LatticeParameters
 aCell | bCell | cCell
%

Spacing = 0.5

r_s = 4.0
N_electrons = 8
jradius = r_s * (N_electrons)^(1.0/3.0)

%Species
"jellium" | species_jellium | jellium_radius | jradius | valence | N_electrons
%

%Coordinates
"jellium" | 0 | 0 | 0
%

# enforce same block size for GPU and CPU runs
StatesBlockSize = 4
SpinComponents = spinors
